@startwbs ObjektOrientiertNeubauLagerhalle

<style>
node {
    Margin 10
    HorizontalAlignment center
    LineColor blue
    RoundCorner 5
    MaximumWidth 100
}  

</style>
* [Objektorientierung] Neubau Lagerhalle
** Anschlüsse
*** Strom
*** Wasser
*** Telefon
** Gebäude
*** Bodenplatte 
*** Mauern
*** Dach
** Zufahrt
*** Straße
*** Tor 
@endwbs
